%YAML 1.1
%TAG !u! tag:unity3d.com,2011:
--- !u!1 &1624634938781772851
GameObject:
  m_ObjectHideFlags: 0
  m_CorrespondingSourceObject: {fileID: 0}
  m_PrefabInstance: {fileID: 0}
  m_PrefabAsset: {fileID: 0}
  serializedVersion: 6
  m_Component:
  - component: {fileID: 1624634938781772845}
  - component: {fileID: 1624634938781772850}
  m_Layer: 0
  m_Name: EnemySkySpawner
  m_TagString: Untagged
  m_Icon: {fileID: 0}
  m_NavMeshLayer: 0
  m_StaticEditorFlags: 0
  m_IsActive: 1
--- !u!4 &1624634938781772845
Transform:
  m_ObjectHideFlags: 0
  m_CorrespondingSourceObject: {fileID: 0}
  m_PrefabInstance: {fileID: 0}
  m_PrefabAsset: {fileID: 0}
  m_GameObject: {fileID: 1624634938781772851}
  m_LocalRotation: {x: 0, y: 0, z: 0, w: 1}
  m_LocalPosition: {x: 0, y: 50, z: -85.426254}
  m_LocalScale: {x: 1, y: 1, z: 1}
  m_Children: []
  m_Father: {fileID: 0}
  m_RootOrder: 0
  m_LocalEulerAnglesHint: {x: 0, y: 0, z: 0}
--- !u!114 &1624634938781772850
MonoBehaviour:
  m_ObjectHideFlags: 0
  m_CorrespondingSourceObject: {fileID: 0}
  m_PrefabInstance: {fileID: 0}
  m_PrefabAsset: {fileID: 0}
  m_GameObject: {fileID: 1624634938781772851}
  m_Enabled: 1
  m_EditorHideFlags: 0
  m_Script: {fileID: 11500000, guid: 1c1bc377e62b4d7468dd68307e8634f4, type: 3}
  m_Name: 
  m_EditorClassIdentifier: 
  enemyProjectile: {fileID: 8252060011392161159, guid: 9f8544ab68deeb645a663d5090b784f1, type: 3}
  ammoCount: 30
  fireRate: 2
  spawnYlevel: 50
  minSpawnX: 0
  maxSpawnX: 0
  sameX: 1
  sharedX: 45
